0	Prognostic
1	Prognostic
2	AssociatedVariant
3	Prognostic
4	AssociatedVariant
5	Prognostic
6	AssociatedVariant
7	AssociatedVariant
8	AssociatedVariant
9	AssociatedVariant
10	Prognostic
11	Prognostic
12	AssociatedVariant
13	Predisposing
14	Prognostic
15	Diagnostic
16	Diagnostic
17	Predisposing
18	Prognostic
19	Prognostic
20	AssociatedVariant
21	AssociatedVariant
22	Prognostic
23	AssociatedVariant
24	AssociatedVariant
25	Prognostic
26	Diagnostic
27	Predisposing
28	Prognostic
29	Prognostic
30	AssociatedVariant
31	Diagnostic
32	AssociatedVariant
33	AssociatedVariant
34	AssociatedVariant
35	Diagnostic
36	AssociatedVariant
37	Prognostic
38	Predisposing
39	Prognostic
40	AssociatedVariant
41	Diagnostic
42	AssociatedVariant
43	AssociatedVariant
44	Prognostic
45	Predisposing
46	AssociatedVariant
47	Prognostic
48	AssociatedVariant
49	Predisposing
50	Prognostic
51	Prognostic
52	AssociatedVariant
53	Diagnostic
54	Diagnostic
55	Predisposing
56	Predisposing
57	Prognostic
58	AssociatedVariant
59	AssociatedVariant
60	Prognostic
61	AssociatedVariant
62	AssociatedVariant
63	AssociatedVariant
64	Prognostic
65	AssociatedVariant
66	AssociatedVariant
67	Predisposing
68	AssociatedVariant
69	AssociatedVariant
70	Prognostic
71	Diagnostic
72	Prognostic
73	AssociatedVariant
74	AssociatedVariant
75	AssociatedVariant
76	Predisposing
77	Predisposing
78	AssociatedVariant
79	Prognostic
80	AssociatedVariant
81	Prognostic
82	Prognostic
83	Prognostic
84	AssociatedVariant
85	Prognostic
86	Predisposing
87	AssociatedVariant
88	AssociatedVariant
89	Diagnostic
90	AssociatedVariant
91	AssociatedVariant
92	AssociatedVariant
93	Prognostic
94	Diagnostic
95	Predisposing
96	Predisposing
97	Diagnostic
98	Prognostic
99	AssociatedVariant
100	Prognostic
101	Prognostic
102	Prognostic
103	AssociatedVariant
104	Prognostic
105	AssociatedVariant
106	Diagnostic
107	AssociatedVariant
108	AssociatedVariant
109	Prognostic
110	Prognostic
111	Prognostic
112	AssociatedVariant
113	Prognostic
114	AssociatedVariant
115	AssociatedVariant
116	AssociatedVariant
117	AssociatedVariant
118	AssociatedVariant
119	Diagnostic
120	Predisposing
121	Prognostic
122	AssociatedVariant
123	AssociatedVariant
124	Diagnostic
125	AssociatedVariant
126	AssociatedVariant
