
================ Hyper-parameters ================

TRAIN_PATH=SemEval2010_task8_all_data/SemEval2010_task8_training/TRAIN_FILE.TXT
TEST_PATH=SemEval2010_task8_all_data/SemEval2010_task8_testing_keys/TEST_FILE_FULL.TXT
MAX_SENTENCE_LENGTH=90
EMBEDDINGS=None
EMBEDDING_SIZE=300
POS_EMBEDDING_SIZE=50
EMB_DROPOUT_KEEP_PROB=0.7
HIDDEN_SIZE=300
RNN_DROPOUT_KEEP_PROB=0.7
NUM_HEADS=4
ATTENTION_SIZE=50
DESC=
DROPOUT_KEEP_PROB=0.5
L2_REG_LAMBDA=1e-05
BATCH_SIZE=20
NUM_EPOCHS=100
DISPLAY_EVERY=10
EVALUATE_EVERY=100
NUM_CHECKPOINTS=5
LEARNING_RATE=1.0
DECAY_RATE=0.9
ALLOW_SOFT_PLACEMENT=True
LOG_DEVICE_PLACEMENT=False
GPU_ALLOW_GROWTH=True
CHECKPOINT_DIR=None

==================================================

2019-09-02T15:23:17.661660: step 10, loss 1.581, acc 0.4
2019-09-02T15:23:19.722767: step 20, loss 1.65988, acc 0.35
2019-09-02T15:23:21.939707: step 30, loss 1.33758, acc 0.45
2019-09-02T15:23:24.223518: step 40, loss 1.28637, acc 0.4
2019-09-02T15:23:26.391662: step 50, loss 1.23756, acc 0.55
2019-09-02T15:23:28.681187: step 60, loss 0.833646, acc 0.7
2019-09-02T15:23:30.946396: step 70, loss 0.42027, acc 1
2019-09-02T15:23:33.239263: step 80, loss 0.404398, acc 0.95
2019-09-02T15:23:35.323916: step 90, loss 0.356842, acc 0.95
2019-09-02T15:23:37.684297: step 100, loss 0.415479, acc 0.85

Evaluation:
2019-09-02T15:23:38.368797: step 100, loss 0.213507, acc 0.907143
<<< (9+1)-WAY EVALUATION TAKING DIRECTIONALITY INTO ACCOUNT -- OFFICIAL >>>:
macro-averaged F1-score = 0.897125%, Best = 0.897125%

2019-09-02T15:23:40.705007: step 110, loss 0.206873, acc 1
2019-09-02T15:23:43.008971: step 120, loss 0.262876, acc 0.95
2019-09-02T15:23:45.297163: step 130, loss 0.248413, acc 0.95
2019-09-02T15:23:47.466704: step 140, loss 0.1564, acc 1
2019-09-02T15:23:49.756831: step 150, loss 0.158791, acc 1
2019-09-02T15:23:51.837450: step 160, loss 0.131959, acc 1
2019-09-02T15:23:54.178102: step 170, loss 0.139291, acc 1
2019-09-02T15:23:56.314916: step 180, loss 0.290271, acc 0.9
2019-09-02T15:23:58.592077: step 190, loss 0.144174, acc 1
2019-09-02T15:24:00.642181: step 200, loss 0.175119, acc 1

Evaluation:
2019-09-02T15:24:01.086602: step 200, loss 0.125789, acc 0.95
<<< (9+1)-WAY EVALUATION TAKING DIRECTIONALITY INTO ACCOUNT -- OFFICIAL >>>:
macro-averaged F1-score = 0.945216%, Best = 0.945216%

2019-09-02T15:24:03.591314: step 210, loss 0.146258, acc 1
2019-09-02T15:24:05.661010: step 220, loss 0.133655, acc 1
2019-09-02T15:24:07.881514: step 230, loss 0.127837, acc 1
2019-09-02T15:24:10.128378: step 240, loss 0.201973, acc 0.95
2019-09-02T15:24:12.340721: step 250, loss 0.149477, acc 1
