
================ Hyper-parameters ================

TRAIN_PATH=SemEval2010_task8_all_data/SemEval2010_task8_training/TRAIN_FILE.TXT
TEST_PATH=SemEval2010_task8_all_data/SemEval2010_task8_testing_keys/TEST_FILE_FULL.TXT
MAX_SENTENCE_LENGTH=90
EMBEDDINGS=None
EMBEDDING_SIZE=300
POS_EMBEDDING_SIZE=50
EMB_DROPOUT_KEEP_PROB=0.7
HIDDEN_SIZE=300
RNN_DROPOUT_KEEP_PROB=0.7
NUM_HEADS=4
ATTENTION_SIZE=50
DESC=
DROPOUT_KEEP_PROB=0.5
L2_REG_LAMBDA=1e-05
BATCH_SIZE=20
NUM_EPOCHS=100
DISPLAY_EVERY=10
EVALUATE_EVERY=100
NUM_CHECKPOINTS=5
LEARNING_RATE=1.0
DECAY_RATE=0.9
ALLOW_SOFT_PLACEMENT=True
LOG_DEVICE_PLACEMENT=False
GPU_ALLOW_GROWTH=True
CHECKPOINT_DIR=None

==================================================

2019-07-09T15:17:33.387895: step 10, loss 1.45327, acc 0.4
2019-07-09T15:17:35.774396: step 20, loss 1.49216, acc 0.45
2019-07-09T15:17:38.087056: step 30, loss 1.95781, acc 0.6
2019-07-09T15:17:40.389462: step 40, loss 1.02626, acc 0.65
2019-07-09T15:17:42.832737: step 50, loss 0.975506, acc 0.6
2019-07-09T15:17:44.989805: step 60, loss 0.678046, acc 0.75
2019-07-09T15:17:47.162960: step 70, loss 0.27341, acc 1
2019-07-09T15:17:49.472394: step 80, loss 0.773152, acc 0.75
2019-07-09T15:17:51.784848: step 90, loss 0.217969, acc 0.95
2019-07-09T15:17:54.095057: step 100, loss 0.145356, acc 1

Evaluation:
2019-07-09T15:17:54.791680: step 100, loss 0.393195, acc 0.876515
